{
    "Assessment": {
        "Parts": [
            {
                "id": "b42",
                "Text": {
                    "language": "html",
                    "content": "Consider different objects (same mass and radius) being released from the top of an inclined plane at the same time and rolling without slipping. Rank in order of arriving at the bottom."
                },
                "Response": {
                    "type": "RankResponse",
                    "id": "a22",
                    "order": "randomized",
                    "FoilGroup": {
                        "id": "c22",
                        "pick": 4,
                        "Foil": [
                            {
                                "id": "c22",
                                "value": "1",
                                "Input": {
                                    "id": "c22a"
                                },
                                "Text": {
                                    "language": "html",
                                    "content": "Solid Sphere"
                                }
                            },
                            {
                                "id": "c23",
                                "value": "3",
                                "Input": {
                                    "id": "122"
                                },
                                "Text": {
                                    "language": "html",
                                    "content": "Hollow Sphere"
                                }
                            },
                            {
                                "id": "d22",
                                "value": "2",
                                "Input": {
                                    "id": "c22b"
                                },
                                "Text": {
                                    "language": "html",
                                    "content": "Solid Cylinder"
                                }
                            },
                            {
                                "id": "d24",
                                "value": "4",
                                "Input": {
                                    "id": "a22b"
                                },
                                "Text": {
                                    "language": "html",
                                    "content": "Hollow Cylinder"
                                }
                            }
                        ]
                    }
                }
            },
            {
                "id": "b43",
                "Text": {
                    "language": "html",
                    "content": "What is the acceleration due to gravity on Earth?"
                },
                "Response": {
                    "type": "MultipleChoiceResponse",
                    "id": "b23",
                    "correct": "9.8",
                    "FoilGroup": {
                        "id": "d23",
                        "pick": 1,
                        "Foil": [
                            {
                                "id": "f21",
                                "value": true,
                                "Input": {
                                    "id": "i21"
                                },
                                "Text": {
                                    "language": "html",
                                    "content": "9.8 m/s²"
                                }
                            },
                            {
                                "id": "f22",
                                "value": false,
                                "Input": {
                                    "id": "i22"
                                },
                                "Text": {
                                    "language": "html",
                                    "content": "10 m/s²"
                                }
                            },
                            {
                                "id": "f23",
                                "value": false,
                                "Input": {
                                    "id": "i23"
                                },
                                "Text": {
                                    "language": "html",
                                    "content": "9.6 m/s²"
                                }
                            }
                        ]
                    }
                }
            }
        ]
    }
}
