{
    "$schema": "http://json-schema.org/draft-07/schema#",
    "title": "RankResponse",
    "type": "object",
    "properties": {
        "type": {
            "type": "string",
            "enum": ["rankresponse"]
        },
        "order": {
            "type": "string",
            "enum": ["randomized", "sequential"]
        },
        "FoilGroup": {
            "type": "object",
            "properties": {
                "pick": {
                    "type": "integer",
                    "minimum": 1
                },
                "Foil": {
                    "type": "array",
                    "items": {
                        "type": "object",
                        "properties": {
                            "key": {
                                "type": "string",
                                "pattern": "^foil_\\d+$"
                            },
                            "value": {
                                "type": "integer"
                            },
                            "Text": {
                                "type": "object",
                                "properties": {
                                    "language": {
                                        "type": "string",
                                        "enum": ["html"]
                                    },
                                    "content": {
                                        "type": "string"
                                    }
                                },
                                "required": ["language", "content"]
                            }
                        },
                        "required": ["key", "value", "Text"]
                    },
                    "minItems": 1
                }
            },
            "required": ["pick", "Foil"]
        }
    },
    "required": ["type", "order", "FoilGroup"]
}
